{
    "artists": {
        "href": "https://api.spotify.com/v1/search?query=Metallica&type=artist&include_external=audio&locale=en-CA%2Cen%3Bq%3D0.9%2Cfr-CA%3Bq%3D0.8%2Cfr%3Bq%3D0.7&offset=0&limit=20",
        "limit": 20,
        "next": "https://api.spotify.com/v1/search?query=Metallica&type=artist&include_external=audio&locale=en-CA%2Cen%3Bq%3D0.9%2Cfr-CA%3Bq%3D0.8%2Cfr%3Bq%3D0.7&offset=20&limit=20",
        "offset": 0,
        "previous": null,
        "total": 45,
        "items": [
            {
                "external_urls": {
                    "spotify": "https://open.spotify.com/artist/2ye2Wgw4gimLv2eAKyk1NB"
                },
                "followers": {
                    "href": null,
                    "total": 24234706
                },
                "genres": [
                    "hard rock",
                    "metal",
                    "old school thrash",
                    "rock",
                    "thrash metal"
                ],
                "href": "https://api.spotify.com/v1/artists/2ye2Wgw4gimLv2eAKyk1NB",
                "id": "2ye2Wgw4gimLv2eAKyk1NB",
                "images": [
                    {
                        "url": "https://i.scdn.co/image/ab6761610000e5eb69ca98dd3083f1082d740e44",
                        "height": 640,
                        "width": 640
                    },
                    {
                        "url": "https://i.scdn.co/image/ab6761610000517469ca98dd3083f1082d740e44",
                        "height": 320,
                        "width": 320
                    },
                    {
                        "url": "https://i.scdn.co/image/ab6761610000f17869ca98dd3083f1082d740e44",
                        "height": 160,
                        "width": 160
                    }
                ],
                "name": "Metallica",
                "popularity": 84,
                "type": "artist",
                "uri": "spotify:artist:2ye2Wgw4gimLv2eAKyk1NB"
            },
            {
                "external_urls": {
                    "spotify": "https://open.spotify.com/artist/1Yox196W7bzVNZI7RBaPnf"
                },
                "followers": {
                    "href": null,
                    "total": 4587058
                },
                "genres": [
                    "alternative metal",
                    "hard rock",
                    "melodic thrash",
                    "metal",
                    "old school thrash",
                    "rock",
                    "speed metal",
                    "thrash metal"
                ],
                "href": "https://api.spotify.com/v1/artists/1Yox196W7bzVNZI7RBaPnf",
                "id": "1Yox196W7bzVNZI7RBaPnf",
                "images": [
                    {
                        "url": "https://i.scdn.co/image/ab6761610000e5eb79058c0b634631533ed40b22",
                        "height": 640,
                        "width": 640
                    },
                    {
                        "url": "https://i.scdn.co/image/ab6761610000517479058c0b634631533ed40b22",
                        "height": 320,
                        "width": 320
                    },
                    {
                        "url": "https://i.scdn.co/image/ab6761610000f17879058c0b634631533ed40b22",
                        "height": 160,
                        "width": 160
                    }
                ],
                "name": "Megadeth",
                "popularity": 72,
                "type": "artist",
                "uri": "spotify:artist:1Yox196W7bzVNZI7RBaPnf"
            },
            {
                "external_urls": {
                    "spotify": "https://open.spotify.com/artist/711MCceyCBcFnzjGY4Q7Un"
                },
                "followers": {
                    "href": null,
                    "total": 26064533
                },
                "genres": [
                    "australian rock",
                    "hard rock",
                    "rock"
                ],
                "href": "https://api.spotify.com/v1/artists/711MCceyCBcFnzjGY4Q7Un",
                "id": "711MCceyCBcFnzjGY4Q7Un",
                "images": [
                    {
                        "url": "https://i.scdn.co/image/ab6761610000e5ebc4c77549095c86acb4e77b37",
                        "height": 640,
                        "width": 640
                    },
                    {
                        "url": "https://i.scdn.co/image/ab67616100005174c4c77549095c86acb4e77b37",
                        "height": 320,
                        "width": 320
                    },
                    {
                        "url": "https://i.scdn.co/image/ab6761610000f178c4c77549095c86acb4e77b37",
                        "height": 160,
                        "width": 160
                    }
                ],
                "name": "AC/DC",
                "popularity": 82,
                "type": "artist",
                "uri": "spotify:artist:711MCceyCBcFnzjGY4Q7Un"
            },
            {
                "external_urls": {
                    "spotify": "https://open.spotify.com/artist/3qm84nBOXUEQ2vnTfUTTFC"
                },
                "followers": {
                    "href": null,
                    "total": 28226254
                },
                "genres": [
                    "glam metal",
                    "hard rock",
                    "rock"
                ],
                "href": "https://api.spotify.com/v1/artists/3qm84nBOXUEQ2vnTfUTTFC",
                "id": "3qm84nBOXUEQ2vnTfUTTFC",
                "images": [
                    {
                        "url": "https://i.scdn.co/image/ab6761610000e5eb50defaf9fc059a1efc541f4c",
                        "height": 640,
                        "width": 640
                    },
                    {
                        "url": "https://i.scdn.co/image/ab6761610000517450defaf9fc059a1efc541f4c",
                        "height": 320,
                        "width": 320
                    },
                    {
                        "url": "https://i.scdn.co/image/ab6761610000f17850defaf9fc059a1efc541f4c",
                        "height": 160,
                        "width": 160
                    }
                ],
                "name": "Guns N' Roses",
                "popularity": 81,
                "type": "artist",
                "uri": "spotify:artist:3qm84nBOXUEQ2vnTfUTTFC"
            },
            {
                "external_urls": {
                    "spotify": "https://open.spotify.com/artist/01ZELncwfB8709jpPMunJ0"
                },
                "followers": {
                    "href": null,
                    "total": 1779
                },
                "genres": [
                    "nwothm"
                ],
                "href": "https://api.spotify.com/v1/artists/01ZELncwfB8709jpPMunJ0",
                "id": "01ZELncwfB8709jpPMunJ0",
                "images": [
                    {
                        "url": "https://i.scdn.co/image/ab67616d0000b273428ead2d2b1243ca251f156a",
                        "height": 640,
                        "width": 640
                    },
                    {
                        "url": "https://i.scdn.co/image/ab67616d00001e02428ead2d2b1243ca251f156a",
                        "height": 300,
                        "width": 300
                    },
                    {
                        "url": "https://i.scdn.co/image/ab67616d00004851428ead2d2b1243ca251f156a",
                        "height": 64,
                        "width": 64
                    }
                ],
                "name": "Metalian",
                "popularity": 9,
                "type": "artist",
                "uri": "spotify:artist:01ZELncwfB8709jpPMunJ0"
            },
            {
                "external_urls": {
                    "spotify": "https://open.spotify.com/artist/2ouOJPakXli9ePEiCAHNqw"
                },
                "followers": {
                    "href": null,
                    "total": 54
                },
                "genres": [],
                "href": "https://api.spotify.com/v1/artists/2ouOJPakXli9ePEiCAHNqw",
                "id": "2ouOJPakXli9ePEiCAHNqw",
                "images": [
                    {
                        "url": "https://i.scdn.co/image/ab6761610000e5eb7a55ce88753288d435995791",
                        "height": 640,
                        "width": 640
                    },
                    {
                        "url": "https://i.scdn.co/image/ab676161000051747a55ce88753288d435995791",
                        "height": 320,
                        "width": 320
                    },
                    {
                        "url": "https://i.scdn.co/image/ab6761610000f1787a55ce88753288d435995791",
                        "height": 160,
                        "width": 160
                    }
                ],
                "name": "Metallicash",
                "popularity": 0,
                "type": "artist",
                "uri": "spotify:artist:2ouOJPakXli9ePEiCAHNqw"
            },
            {
                "external_urls": {
                    "spotify": "https://open.spotify.com/artist/2k6JE1LV7mSOavtrZ5m5qR"
                },
                "followers": {
                    "href": null,
                    "total": 849
                },
                "genres": [],
                "href": "https://api.spotify.com/v1/artists/2k6JE1LV7mSOavtrZ5m5qR",
                "id": "2k6JE1LV7mSOavtrZ5m5qR",
                "images": [
                    {
                        "url": "https://i.scdn.co/image/ab67616d0000b273e0d2015304738c7bc08c5203",
                        "height": 640,
                        "width": 640
                    },
                    {
                        "url": "https://i.scdn.co/image/ab67616d00001e02e0d2015304738c7bc08c5203",
                        "height": 300,
                        "width": 300
                    },
                    {
                        "url": "https://i.scdn.co/image/ab67616d00004851e0d2015304738c7bc08c5203",
                        "height": 64,
                        "width": 64
                    }
                ],
                "name": "SaD - Symphony and Metallica",
                "popularity": 13,
                "type": "artist",
                "uri": "spotify:artist:2k6JE1LV7mSOavtrZ5m5qR"
            },
            {
                "external_urls": {
                    "spotify": "https://open.spotify.com/artist/61OPB1XJSYA5JoAvWZUQ4Z"
                },
                "followers": {
                    "href": null,
                    "total": 719
                },
                "genres": [],
                "href": "https://api.spotify.com/v1/artists/61OPB1XJSYA5JoAvWZUQ4Z",
                "id": "61OPB1XJSYA5JoAvWZUQ4Z",
                "images": [],
                "name": "Metallica Tribute Band",
                "popularity": 3,
                "type": "artist",
                "uri": "spotify:artist:61OPB1XJSYA5JoAvWZUQ4Z"
            },
            {
                "external_urls": {
                    "spotify": "https://open.spotify.com/artist/7I2EiRxYEZigLPzgu43HWq"
                },
                "followers": {
                    "href": null,
                    "total": 248
                },
                "genres": [],
                "href": "https://api.spotify.com/v1/artists/7I2EiRxYEZigLPzgu43HWq",
                "id": "7I2EiRxYEZigLPzgu43HWq",
                "images": [],
                "name": "Metallica: Burton",
                "popularity": 0,
                "type": "artist",
                "uri": "spotify:artist:7I2EiRxYEZigLPzgu43HWq"
            },
            {
                "external_urls": {
                    "spotify": "https://open.spotify.com/artist/3BJHqPv2sSKDFILR7OvjKz"
                },
                "followers": {
                    "href": null,
                    "total": 2707
                },
                "genres": [],
                "href": "https://api.spotify.com/v1/artists/3BJHqPv2sSKDFILR7OvjKz",
                "id": "3BJHqPv2sSKDFILR7OvjKz",
                "images": [
                    {
                        "url": "https://i.scdn.co/image/ab6761610000e5ebbdf52d98971db2775a08a8d2",
                        "height": 640,
                        "width": 640
                    },
                    {
                        "url": "https://i.scdn.co/image/ab67616100005174bdf52d98971db2775a08a8d2",
                        "height": 320,
                        "width": 320
                    },
                    {
                        "url": "https://i.scdn.co/image/ab6761610000f178bdf52d98971db2775a08a8d2",
                        "height": 160,
                        "width": 160
                    }
                ],
                "name": "Metalecalec",
                "popularity": 22,
                "type": "artist",
                "uri": "spotify:artist:3BJHqPv2sSKDFILR7OvjKz"
            },
            {
                "external_urls": {
                    "spotify": "https://open.spotify.com/artist/47wBd6p1vSdIrgXxdc1Cde"
                },
                "followers": {
                    "href": null,
                    "total": 17
                },
                "genres": [],
                "href": "https://api.spotify.com/v1/artists/47wBd6p1vSdIrgXxdc1Cde",
                "id": "47wBd6p1vSdIrgXxdc1Cde",
                "images": [
                    {
                        "url": "https://i.scdn.co/image/ab67616d0000b2737ebaa72eca7e4cb70f4902ec",
                        "height": 640,
                        "width": 640
                    },
                    {
                        "url": "https://i.scdn.co/image/ab67616d00001e027ebaa72eca7e4cb70f4902ec",
                        "height": 300,
                        "width": 300
                    },
                    {
                        "url": "https://i.scdn.co/image/ab67616d000048517ebaa72eca7e4cb70f4902ec",
                        "height": 64,
                        "width": 64
                    }
                ],
                "name": "MetallicaMan",
                "popularity": 0,
                "type": "artist",
                "uri": "spotify:artist:47wBd6p1vSdIrgXxdc1Cde"
            },
            {
                "external_urls": {
                    "spotify": "https://open.spotify.com/artist/7xXiZGPcqDEijirJubILoZ"
                },
                "followers": {
                    "href": null,
                    "total": 410
                },
                "genres": [],
                "href": "https://api.spotify.com/v1/artists/7xXiZGPcqDEijirJubILoZ",
                "id": "7xXiZGPcqDEijirJubILoZ",
                "images": [],
                "name": "Made famous by Metallica",
                "popularity": 0,
                "type": "artist",
                "uri": "spotify:artist:7xXiZGPcqDEijirJubILoZ"
            },
            {
                "external_urls": {
                    "spotify": "https://open.spotify.com/artist/7Cb4VdtakIlAvklqegssGB"
                },
                "followers": {
                    "href": null,
                    "total": 12839
                },
                "genres": [],
                "href": "https://api.spotify.com/v1/artists/7Cb4VdtakIlAvklqegssGB",
                "id": "7Cb4VdtakIlAvklqegssGB",
                "images": [
                    {
                        "url": "https://i.scdn.co/image/ab67616d0000b2730baa189d8d5e6ca03a5adfed",
                        "height": 640,
                        "width": 640
                    },
                    {
                        "url": "https://i.scdn.co/image/ab67616d00001e020baa189d8d5e6ca03a5adfed",
                        "height": 300,
                        "width": 300
                    },
                    {
                        "url": "https://i.scdn.co/image/ab67616d000048510baa189d8d5e6ca03a5adfed",
                        "height": 64,
                        "width": 64
                    }
                ],
                "name": "Spartan Metallican Visionary",
                "popularity": 0,
                "type": "artist",
                "uri": "spotify:artist:7Cb4VdtakIlAvklqegssGB"
            },
            {
                "external_urls": {
                    "spotify": "https://open.spotify.com/artist/55golvVPPZZAYSTDXt6Yfv"
                },
                "followers": {
                    "href": null,
                    "total": 76
                },
                "genres": [],
                "href": "https://api.spotify.com/v1/artists/55golvVPPZZAYSTDXt6Yfv",
                "id": "55golvVPPZZAYSTDXt6Yfv",
                "images": [
                    {
                        "url": "https://i.scdn.co/image/ab67616d0000b273ede2b9bbbc922f879d036747",
                        "height": 640,
                        "width": 640
                    },
                    {
                        "url": "https://i.scdn.co/image/ab67616d00001e02ede2b9bbbc922f879d036747",
                        "height": 300,
                        "width": 300
                    },
                    {
                        "url": "https://i.scdn.co/image/ab67616d00004851ede2b9bbbc922f879d036747",
                        "height": 64,
                        "width": 64
                    }
                ],
                "name": "SaD - European Metallica Tribute",
                "popularity": 0,
                "type": "artist",
                "uri": "spotify:artist:55golvVPPZZAYSTDXt6Yfv"
            },
            {
                "external_urls": {
                    "spotify": "https://open.spotify.com/artist/6jPnjdXijpUoqWR4YTWDo3"
                },
                "followers": {
                    "href": null,
                    "total": 18175
                },
                "genres": [
                    "bases de freestyle",
                    "rap sureno chileno"
                ],
                "href": "https://api.spotify.com/v1/artists/6jPnjdXijpUoqWR4YTWDo3",
                "id": "6jPnjdXijpUoqWR4YTWDo3",
                "images": [
                    {
                        "url": "https://i.scdn.co/image/ab6761610000e5eb954c98c9fb3d1dac3f8e9d74",
                        "height": 640,
                        "width": 640
                    },
                    {
                        "url": "https://i.scdn.co/image/ab67616100005174954c98c9fb3d1dac3f8e9d74",
                        "height": 320,
                        "width": 320
                    },
                    {
                        "url": "https://i.scdn.co/image/ab6761610000f178954c98c9fb3d1dac3f8e9d74",
                        "height": 160,
                        "width": 160
                    }
                ],
                "name": "Metalingüística",
                "popularity": 37,
                "type": "artist",
                "uri": "spotify:artist:6jPnjdXijpUoqWR4YTWDo3"
            },
            {
                "external_urls": {
                    "spotify": "https://open.spotify.com/artist/0JQPhxSOzcPwFTBnpssOMv"
                },
                "followers": {
                    "href": null,
                    "total": 3844
                },
                "genres": [
                    "dark disco"
                ],
                "href": "https://api.spotify.com/v1/artists/0JQPhxSOzcPwFTBnpssOMv",
                "id": "0JQPhxSOzcPwFTBnpssOMv",
                "images": [
                    {
                        "url": "https://i.scdn.co/image/ab6761610000e5eb80bc958934d06abbd1269a95",
                        "height": 640,
                        "width": 640
                    },
                    {
                        "url": "https://i.scdn.co/image/ab6761610000517480bc958934d06abbd1269a95",
                        "height": 320,
                        "width": 320
                    },
                    {
                        "url": "https://i.scdn.co/image/ab6761610000f17880bc958934d06abbd1269a95",
                        "height": 160,
                        "width": 160
                    }
                ],
                "name": "Métrika",
                "popularity": 17,
                "type": "artist",
                "uri": "spotify:artist:0JQPhxSOzcPwFTBnpssOMv"
            },
            {
                "external_urls": {
                    "spotify": "https://open.spotify.com/artist/6Hk1MfyDf6VF6Hb4TaEOmI"
                },
                "followers": {
                    "href": null,
                    "total": 1807
                },
                "genres": [],
                "href": "https://api.spotify.com/v1/artists/6Hk1MfyDf6VF6Hb4TaEOmI",
                "id": "6Hk1MfyDf6VF6Hb4TaEOmI",
                "images": [
                    {
                        "url": "https://i.scdn.co/image/ab6761610000e5eb75b4ea482a9b5274414e644f",
                        "height": 640,
                        "width": 640
                    },
                    {
                        "url": "https://i.scdn.co/image/ab6761610000517475b4ea482a9b5274414e644f",
                        "height": 320,
                        "width": 320
                    },
                    {
                        "url": "https://i.scdn.co/image/ab6761610000f17875b4ea482a9b5274414e644f",
                        "height": 160,
                        "width": 160
                    }
                ],
                "name": "Melotika",
                "popularity": 7,
                "type": "artist",
                "uri": "spotify:artist:6Hk1MfyDf6VF6Hb4TaEOmI"
            },
            {
                "external_urls": {
                    "spotify": "https://open.spotify.com/artist/2qlIKSBxcCo5kuGDBZuzKG"
                },
                "followers": {
                    "href": null,
                    "total": 40
                },
                "genres": [],
                "href": "https://api.spotify.com/v1/artists/2qlIKSBxcCo5kuGDBZuzKG",
                "id": "2qlIKSBxcCo5kuGDBZuzKG",
                "images": [
                    {
                        "url": "https://i.scdn.co/image/ab67616d0000b27388505f9ababd7d8a4c6e4e17",
                        "height": 640,
                        "width": 640
                    },
                    {
                        "url": "https://i.scdn.co/image/ab67616d00001e0288505f9ababd7d8a4c6e4e17",
                        "height": 300,
                        "width": 300
                    },
                    {
                        "url": "https://i.scdn.co/image/ab67616d0000485188505f9ababd7d8a4c6e4e17",
                        "height": 64,
                        "width": 64
                    }
                ],
                "name": "Malakía",
                "popularity": 1,
                "type": "artist",
                "uri": "spotify:artist:2qlIKSBxcCo5kuGDBZuzKG"
            },
            {
                "external_urls": {
                    "spotify": "https://open.spotify.com/artist/0Dr1nbwa1KW5wHYUCsrnAF"
                },
                "followers": {
                    "href": null,
                    "total": 617
                },
                "genres": [],
                "href": "https://api.spotify.com/v1/artists/0Dr1nbwa1KW5wHYUCsrnAF",
                "id": "0Dr1nbwa1KW5wHYUCsrnAF",
                "images": [
                    {
                        "url": "https://i.scdn.co/image/ab6761610000e5eba8625caef96b3e5935e44a9e",
                        "height": 640,
                        "width": 640
                    },
                    {
                        "url": "https://i.scdn.co/image/ab67616100005174a8625caef96b3e5935e44a9e",
                        "height": 320,
                        "width": 320
                    },
                    {
                        "url": "https://i.scdn.co/image/ab6761610000f178a8625caef96b3e5935e44a9e",
                        "height": 160,
                        "width": 160
                    }
                ],
                "name": "Metah",
                "popularity": 28,
                "type": "artist",
                "uri": "spotify:artist:0Dr1nbwa1KW5wHYUCsrnAF"
            },
            {
                "external_urls": {
                    "spotify": "https://open.spotify.com/artist/1teioBiRQ2HYmTmiw6mtZu"
                },
                "followers": {
                    "href": null,
                    "total": 357
                },
                "genres": [],
                "href": "https://api.spotify.com/v1/artists/1teioBiRQ2HYmTmiw6mtZu",
                "id": "1teioBiRQ2HYmTmiw6mtZu",
                "images": [
                    {
                        "url": "https://i.scdn.co/image/ab6761610000e5eb6dfa70dbe8a95eb276cf7603",
                        "height": 640,
                        "width": 640
                    },
                    {
                        "url": "https://i.scdn.co/image/ab676161000051746dfa70dbe8a95eb276cf7603",
                        "height": 320,
                        "width": 320
                    },
                    {
                        "url": "https://i.scdn.co/image/ab6761610000f1786dfa70dbe8a95eb276cf7603",
                        "height": 160,
                        "width": 160
                    }
                ],
                "name": "Mekanika Rolling Band",
                "popularity": 4,
                "type": "artist",
                "uri": "spotify:artist:1teioBiRQ2HYmTmiw6mtZu"
            }
        ]
    }
}